<svg width="20" height="20" viewBox="0 0 20 20" fill="none" xmlns="http://www.w3.org/2000/svg">
<path d="M9.99998 13.9583C10.5753 13.9583 11.0416 13.492 11.0416 12.9167C11.0416 12.3414 10.5753 11.875 9.99998 11.875C9.42468 11.875 8.95831 12.3414 8.95831 12.9167C8.95831 13.492 9.42468 13.9583 9.99998 13.9583Z" fill="#AAAAAA"/>
<path fill-rule="evenodd" clip-rule="evenodd" d="M9.99998 1.66669C8.89491 1.66669 7.8351 2.10567 7.0537 2.88708C6.2723 3.66848 5.83331 4.72828 5.83331 5.83335V8.33335H4.16665C3.70641 8.33335 3.33331 8.70645 3.33331 9.16669V16.6667C3.33331 17.1269 3.70641 17.5 4.16665 17.5H15.8333C16.2936 17.5 16.6666 17.1269 16.6666 16.6667V9.16669C16.6666 8.70645 16.2936 8.33335 15.8333 8.33335H14.1666V5.83335C14.1666 4.72828 13.7277 3.66848 12.9463 2.88708C12.1649 2.10567 11.105 1.66669 9.99998 1.66669ZM12.5 8.33335V5.83335C12.5 5.17031 12.2366 4.53443 11.7677 4.06559C11.2989 3.59675 10.663 3.33335 9.99998 3.33335C9.33694 3.33335 8.70105 3.59675 8.23221 4.06559C7.76337 4.53443 7.49998 5.17031 7.49998 5.83335V8.33335H12.5ZM6.66665 10H4.99998V15.8334H15V10H13.3333H6.66665Z" fill="#AAAAAA"/>
</svg>
